AE 04: NYC flights + data wrangling
…
# add code here

Your turn: Create a data frame that only includes the plane tail number (tailnum), carrier (carrier), and departure delay for the flight with the longest departure delay. What is the plane tail number (tailnum) for this flight?

# add code here

Exercise 6 - filter()

Demo: Filter for all rows where the destination airport is RDU.

flights |> 
  filter(dest == "RDU")

# A tibble: 8,163 × 19
    year month   day dep_time sched_dep_time dep_delay arr_time sched_arr_time
   <int> <int> <int>    <int>          <int>     <dbl>    <int>          <int>
 1  2013     1     1      800            810       -10      949            955
 2  2013     1     1      832            840        -8     1006           1030
 3  2013     1     1      851            851         0     1032           1036
 4  2013     1     1      917            920        -3     1052           1108
 5  2013     1     1     1024           1030        -6     1204           1215
 6  2013     1     1     1127           1129        -2     1303           1309
 7  2013     1     1     1157           1205        -8     1342           1345
 8  2013     1     1     1240           1235         5     1415           1415
 9  2013     1     1     1317           1325        -8     1454           1505
10  2013     1     1     1449           1450        -1     1651           1640
# ℹ 8,153 more rows
# ℹ 11 more variables: arr_delay <dbl>, carrier <chr>, flight <int>,
#   tailnum <chr>, origin <chr>, dest <chr>, air_time <dbl>, distance <dbl>,
#   hour <dbl>, minute <dbl>, time_hour <dttm>

Demo: Filter for all rows where the destination airport is RDU and the arrival delay is less than 0.

flights |> 
  filter(dest == "RDU", arr_delay < 0)

# A tibble: 4,232 × 19
    year month   day dep_time sched_dep_time dep_delay arr_time sched_arr_time
   <int> <int> <int>    <int>          <int>     <dbl>    <int>          <int>
 1  2013     1     1      800            810       -10      949            955
 2  2013     1     1      832            840        -8     1006           1030
 3  2013     1     1      851            851         0     1032           1036
 4  2013     1     1      917            920        -3     1052           1108
 5  2013     1     1     1024           1030        -6     1204           1215
 6  2013     1     1     1127           1129        -2     1303           1309
 7  2013     1     1     1157           1205        -8     1342           1345
 8  2013     1     1     1317           1325        -8     1454           1505
 9  2013     1     1     1505           1510        -5     1654           1655
10  2013     1     1     1800           1800         0     1945           1951
# ℹ 4,222 more rows
# ℹ 11 more variables: arr_delay <dbl>, carrier <chr>, flight <int>,
#   tailnum <chr>, origin <chr>, dest <chr>, air_time <dbl>, distance <dbl>,
#   hour <dbl>, minute <dbl>, time_hour <dttm>

Your turn: Describe what the code is doing in words.

Add response here.

flights |>
  filter(
    dest %in% c("RDU", "GSO"),
    arr_delay < 0 | dep_delay < 0
  )

# A tibble: 6,203 × 19
    year month   day dep_time sched_dep_time dep_delay arr_time sched_arr_time
   <int> <int> <int>    <int>          <int>     <dbl>    <int>          <int>
 1  2013     1     1      800            810       -10      949            955
 2  2013     1     1      832            840        -8     1006           1030
 3  2013     1     1      851            851         0     1032           1036
 4  2013     1     1      917            920        -3     1052           1108
 5  2013     1     1     1024           1030        -6     1204           1215
 6  2013     1     1     1127           1129        -2     1303           1309
 7  2013     1     1     1157           1205        -8     1342           1345
 8  2013     1     1     1317           1325        -8     1454           1505
 9  2013     1     1     1449           1450        -1     1651           1640
10  2013     1     1     1505           1510        -5     1654           1655
# ℹ 6,193 more rows
# ℹ 11 more variables: arr_delay <dbl>, carrier <chr>, flight <int>,
#   tailnum <chr>, origin <chr>, dest <chr>, air_time <dbl>, distance <dbl>,
#   hour <dbl>, minute <dbl>, time_hour <dttm>
…
!(x %in% y)
is x not in y?

!x
is not x? (only makes sense if x is TRUE or FALSE)

Exercise 7 - count()

Demo: Create a frequency table of the destination locations for flights from New York.

flights |>
  count(dest) |>
  arrange(n)

# A tibble: 105 × 2
   dest      n
   <chr> <int>
 1 LEX       1
 2 LGA       1
 3 ANC       8
 4 SBN      10
 5 HDN      15
 6 MTJ      15
 7 EYW      17
 8 PSP      19
 9 JAC      25
10 BZN      36
# ℹ 95 more rows
…
Your turn: On which date (month + day) was there the largest number of flights? How many flights were there on that day?

flights |>
  count(month, day) |>
  arrange(desc(n))

# A tibble: 365 × 3
   month   day     n
   <int> <int> <int>
 1    11    27  1014
 2     7    11  1006
 3     7     8  1004
 4     7    10  1004
 5    12     2  1004
 6     7    18  1003
 7     7    25  1003
 8     7    12  1002
 9     7     9  1001
10     7    17  1001
# ℹ 355 more rows
…
Exercise 8 - mutate()

Demo: Convert air_time (minutes in the air) to hours and then create a new variable, mph, the miles per hour of the flight.

flights <- flights  |> 
  mutate(
    air_time_hrs = air_time / 60,
    mph = distance  / air_time_hrs
  )

flights |> 
  mutate(mph_plus_1 = mph+1)

# A tibble: 336,776 × 22
    year month   day dep_time sched_dep_time dep_delay arr_time sched_arr_time
   <int> <int> <int>    <int>          <int>     <dbl>    <int>          <int>
 1  2013     1     1      517            515         2      830            819
 2  2013     1     1      533            529         4      850            830
 3  2013     1     1      542            540         2      923            850
 4  2013     1     1      544            545        -1     1004           1022
 5  2013     1     1      554            600        -6      812            837
 6  2013     1     1      554            558        -4      740            728
 7  2013     1     1      555            600        -5      913            854
 8  2013     1     1      557            600        -3      709            723
 9  2013     1     1      557            600        -3      838            846
10  2013     1     1      558            600        -2      753            745
# ℹ 336,766 more rows
# ℹ 14 more variables: arr_delay <dbl>, carrier <chr>, flight <int>,
#   tailnum <chr>, origin <chr>, dest <chr>, air_time <dbl>, distance <dbl>,
#   hour <dbl>, minute <dbl>, time_hour <dttm>, air_time_hrs <dbl>, mph <dbl>,
#   mph_plus_1 <dbl>
…
